[
    "F:/git-lab-clone/src/apis/user.ts",
    "F:/git-lab-clone/src/assets/css/base.scss",
    "F:/git-lab-clone/src/assets/css/element/element-override.scss",
    "F:/git-lab-clone/src/assets/css/siyuan/webfont.woff",
    "F:/git-lab-clone/src/assets/css/siyuan/webfont.woff2",
    "F:/git-lab-clone/src/assets/css/var.scss",
    "F:/git-lab-clone/src/assets/font/README.md",
    "F:/git-lab-clone/src/assets/images/empty/link-invalid.png",
    "F:/git-lab-clone/src/assets/images/empty/no-data.png",
    "F:/git-lab-clone/src/pages/home/options模板.temp",
    "F:/git-lab-clone/src/pages/home/setup模板.temp",
    "F:/git-lab-clone/src/services/axios.ts",
    "F:/git-lab-clone/src/services/use-util.ts",
    "F:/git-lab-clone/src/services/validate.ts"
]